Exercise 6-2: Range Rate Modelling

   Date         UTC         Range Rate    Doppler    Difference
yyyy/mm/dd  hh:mm:ss.sss       [m/s]        [m/s]       [m/s] 
1997/01/01  00:06: 0.000    -6385.684    -6385.544     -0.140
1997/01/01  00:09: 0.000    -6113.297    -6113.146     -0.151
1997/01/01  00:11:60.000    -4575.861    -4575.709     -0.153
1997/01/01  00:14:60.000     1488.473     1488.641     -0.168
1997/01/01  00:18: 0.000     5500.427     5500.587     -0.161
1997/01/01  00:21: 0.000     6286.673     6286.822     -0.149
1997/01/01  00:23:60.000     6392.672     6392.806     -0.134

