Exercise 8-3: Sequential orbit determination

Measurements

     Date          UTC        Az[deg]    El[deg]   Range[km]
  1995/03/30  00:20: 0.000    196.258    49.179     6602.958
  1995/03/30  00:40: 0.000    148.696    55.255    11452.211
  1995/03/30  00:59:60.000    133.055    53.129    15927.596
  1995/03/30  01:19:60.000    126.811    52.266    19730.323
  1995/03/30  01:40: 0.000    123.982    52.517    22956.012
  1995/03/30  02:00: 0.000    122.835    53.508    25699.321

State errors

                                         Pos[m]                 Vel[m/s]    
     Date          UTC    Upd.     Error       Sigma       Error       Sigma
1995/03/30  00:20: 0.000  t        9327.9     29917.1     10.2791     24.0921
                          Az       1109.0     22174.7      8.3450     19.8981
                          El        495.2     18155.3      8.6509     18.8776
                          rho        44.2      1622.8      8.5152     12.2176
1995/03/30  00:40: 0.000  t       10320.9     14732.0      8.9679     12.1565
                          Az       6597.2     12046.5      5.9053     10.1192
                          El       5769.3      8549.9      5.2993      7.7232
                          rho       238.9      2712.0      0.3518      2.4986
1995/03/30  00:59:60.000  t         658.6      5334.9      0.3327      2.2924
                          Az        294.0      4432.3      0.1900      1.9643
                          El        272.4      3254.6      0.1844      1.5464
                          rho        39.9      2765.4      0.0304      1.1344
1995/03/30  01:19:60.000  t          64.8      3921.7      0.0261      1.0336
                          Az         53.6      3639.4      0.0235      0.9713
                          El         34.0      2977.4      0.0182      0.7997
                          rho        37.4      2967.6      0.0130      0.7860
1995/03/30  01:40: 0.000  t          71.1      3776.3      0.0121      0.7171
                          Az         52.4      3552.6      0.0093      0.6803
                          El         51.6      3091.6      0.0090      0.5949
                          rho        28.7      3085.2      0.0193      0.5855
1995/03/30  02:00: 0.000  t          70.6      3693.1      0.0195      0.5341
                          Az         55.5      3510.0      0.0177      0.5105
                          El         54.2      3156.1      0.0172      0.4602
                          rho        49.4      3149.9      0.0453      0.4564

